<svg width="40" height="40" viewBox="0 0 40 40" fill="none" xmlns="http://www.w3.org/2000/svg">
<path d="M7 25.4158H14.5" stroke="white" stroke-width="1.5" stroke-linecap="round" stroke-linejoin="round"/>
<path d="M26.5 25.4158H29.5" stroke="white" stroke-width="1.5" stroke-linecap="round" stroke-linejoin="round"/>
<path d="M7 20.9158H14.5" stroke="white" stroke-width="1.5" stroke-linecap="round" stroke-linejoin="round"/>
<path d="M7 16.4158H17.5" stroke="white" stroke-width="1.5" stroke-linecap="round" stroke-linejoin="round"/>
<path d="M19 11.9158H8.5C8.10218 11.9158 7.72064 12.0738 7.43934 12.3551C7.15804 12.6364 7 13.0179 7 13.4158V28.4158C7 28.8136 7.15804 29.1951 7.43934 29.4764C7.72064 29.7577 8.10218 29.9158 8.5 29.9158H29.5" stroke="white" stroke-width="1.5" stroke-linecap="round" stroke-linejoin="round"/>
<path d="M23.7289 12.4801L24.436 13.1872C24.8265 13.5777 25.4596 13.5777 25.8502 13.1872L29.2089 9.82842C29.5995 9.4379 29.5995 8.80473 29.2089 8.41421L28.5018 7.7071C28.1113 7.31658 27.4781 7.31658 27.0876 7.7071L23.7289 11.0659C23.3383 11.4564 23.3383 12.0895 23.7289 12.4801Z" stroke="white" stroke-width="1.5" stroke-linecap="round" stroke-linejoin="round"/>
<path d="M23.55 19.7277L26.202 17.0767C26.3414 16.9374 26.452 16.772 26.5275 16.59C26.6029 16.4079 26.6417 16.2128 26.6417 16.0157C26.6417 15.8187 26.6029 15.6235 26.5275 15.4415C26.452 15.2594 26.3414 15.094 26.202 14.9547L24.0821 12.8337" stroke="white" stroke-width="1.5" stroke-linecap="round" stroke-linejoin="round"/>
<path d="M17.8299 24.4758C17.7758 24.6119 17.7627 24.7609 17.7923 24.9044C17.8219 25.0479 17.8929 25.1796 17.9965 25.2832C18.1001 25.3867 18.2318 25.4577 18.3753 25.4873C18.5187 25.517 18.6678 25.5039 18.8039 25.4498L25.7849 22.6748C26.002 22.5718 26.1913 22.4182 26.3367 22.2268C26.482 22.0355 26.5793 21.812 26.6203 21.5752C26.6612 21.3383 26.6447 21.0952 26.5721 20.8661C26.4994 20.637 26.3728 20.4287 26.2029 20.2588L23.0209 17.0768C22.851 16.9068 22.6427 16.7802 22.4136 16.7076C22.1845 16.635 21.9413 16.6184 21.7045 16.6594C21.4677 16.7004 21.2442 16.7976 21.0529 16.943C20.8615 17.0884 20.7079 17.2776 20.6049 17.4948L17.8299 24.4758Z" stroke="white" stroke-width="1.5" stroke-linecap="round" stroke-linejoin="round"/>
<path d="M11.5 20.9158V25.4158" stroke="white" stroke-width="1.5" stroke-linecap="round" stroke-linejoin="round"/>
<path d="M13 16.4158V20.9158" stroke="white" stroke-width="1.5" stroke-linecap="round" stroke-linejoin="round"/>
<path d="M16 11.9158V16.4158" stroke="white" stroke-width="1.5" stroke-linecap="round" stroke-linejoin="round"/>
<path d="M13 25.4158V29.9158" stroke="white" stroke-width="1.5" stroke-linecap="round" stroke-linejoin="round"/>
<path d="M23.5 26.9158V29.9158" stroke="white" stroke-width="1.5" stroke-linecap="round" stroke-linejoin="round"/>
</svg>
