<svg width="40" height="40" viewBox="0 0 40 40" fill="none" xmlns="http://www.w3.org/2000/svg">
<path d="M22.295 25.887L18.583 26.417L19.113 22.705L28.659 13.159C29.081 12.7371 29.6533 12.5 30.25 12.5C30.8467 12.5 31.419 12.7371 31.841 13.159C32.263 13.581 32.5 14.1533 32.5 14.75C32.5 15.3468 32.263 15.9191 31.841 16.341L22.295 25.887Z" stroke="white" stroke-width="1.5" stroke-linecap="round" stroke-linejoin="round"/>
<path d="M21.25 8H15.25C14.8358 8 14.5 8.33579 14.5 8.75V10.25C14.5 10.6642 14.8358 11 15.25 11H21.25C21.6642 11 22 10.6642 22 10.25V8.75C22 8.33579 21.6642 8 21.25 8Z" stroke="white" stroke-width="1.5" stroke-linecap="round" stroke-linejoin="round"/>
<path d="M22 9.5H25C25.3978 9.5 25.7794 9.65804 26.0607 9.93934C26.342 10.2206 26.5 10.6022 26.5 11" stroke="white" stroke-width="1.5" stroke-linecap="round" stroke-linejoin="round"/>
<path d="M26.5 26V29C26.5 29.3978 26.342 29.7794 26.0607 30.0607C25.7794 30.342 25.3978 30.5 25 30.5H11.5C11.1022 30.5 10.7206 30.342 10.4393 30.0607C10.158 29.7794 10 29.3978 10 29V11C10 10.6022 10.158 10.2206 10.4393 9.93934C10.7206 9.65804 11.1022 9.5 11.5 9.5H14.5" stroke="white" stroke-width="1.5" stroke-linecap="round" stroke-linejoin="round"/>
<path d="M14.5 15.5H22" stroke="white" stroke-width="1.5" stroke-linecap="round" stroke-linejoin="round"/>
<path d="M14.5 20H17.5" stroke="white" stroke-width="1.5" stroke-linecap="round" stroke-linejoin="round"/>
</svg>
