<svg width="40" height="40" viewBox="0 0 40 40" fill="none" xmlns="http://www.w3.org/2000/svg">
<path d="M31.5 16.752V14.5C31.5 13.3065 31.0259 12.1619 30.182 11.318C29.3381 10.4741 28.1935 10 27 10H13.5C12.3065 10 11.1619 10.4741 10.318 11.318C9.47411 12.1619 9 13.3065 9 14.5V23.5C9 24.6935 9.47411 25.8381 10.318 26.682C11.1619 27.5259 12.3065 28 13.5 28H24.75" stroke="white" stroke-width="1.5" stroke-linecap="round" stroke-linejoin="round"/>
<path d="M20.25 23.5L24.75 28L20.25 32.5" stroke="white" stroke-width="1.5" stroke-linecap="round" stroke-linejoin="round"/>
<path d="M24.75 23.5L29.25 28L24.75 32.5" stroke="white" stroke-width="1.5" stroke-linecap="round" stroke-linejoin="round"/>
</svg>
