<svg width="22" height="23" viewBox="0 0 22 23" fill="none" xmlns="http://www.w3.org/2000/svg">
<path opacity="0.9" d="M10.2125 6.3252C9.73616 6.3252 9.35001 6.71135 9.35001 7.18769V12.0139C9.35001 12.1232 9.40753 12.2245 9.50144 12.2804L14.0106 14.9667C14.4235 15.2127 14.9573 15.0815 15.2091 14.6723C15.4656 14.2555 15.3323 13.7096 14.9127 13.4578L11.075 11.1552V7.18769C11.075 6.71135 10.6889 6.3252 10.2125 6.3252Z" fill="#5080FA"/>
<path opacity="0.9" d="M21 11.3701C21 16.893 16.5228 21.3701 11 21.3701C5.47715 21.3701 1 16.893 1 11.3701C1 10.1301 1.22524 8.94496 1.63615 7.85188C3.06039 4.06325 6.71694 1.37012 11 1.37012C16.5228 1.37012 21 5.84727 21 11.3701Z" stroke="#618CFA" stroke-width="2"/>
</svg>
