<svg width="40" height="40" viewBox="0 0 40 40" fill="none" xmlns="http://www.w3.org/2000/svg">
<circle cx="20" cy="20" r="20" fill="#5080FA"/>
<g clip-path="url(#clip0)">
<path d="M17.0834 26.0708H14.5834C14.2519 26.0708 13.9339 25.9391 13.6995 25.7047C13.4651 25.4703 13.3334 25.1523 13.3334 24.8208V18.5708" stroke="white" stroke-width="1.5" stroke-linecap="round" stroke-linejoin="round"/>
<path d="M10.8334 17.321L18.1509 11.1293C18.3765 10.9383 18.6627 10.8335 18.9584 10.8335C19.254 10.8335 19.5402 10.9383 19.7659 11.1293L25.8359 16.266" stroke="white" stroke-width="1.5" stroke-linecap="round" stroke-linejoin="round"/>
<path d="M23.3334 11.0708H25.8334V13.5708" stroke="white" stroke-width="1.5" stroke-linecap="round" stroke-linejoin="round"/>
<path d="M24.5834 28.5708C27.3448 28.5708 29.5834 26.3322 29.5834 23.5708C29.5834 20.8094 27.3448 18.5708 24.5834 18.5708C21.822 18.5708 19.5834 20.8094 19.5834 23.5708C19.5834 26.3322 21.822 28.5708 24.5834 28.5708Z" stroke="white" stroke-width="1.5" stroke-linecap="round" stroke-linejoin="round"/>
<path d="M26.8115 22.1167L24.3906 25.345C24.3368 25.4166 24.2682 25.4759 24.1895 25.5186C24.1109 25.5614 24.0239 25.5869 23.9345 25.5932C23.8452 25.5995 23.7555 25.5866 23.6716 25.5553C23.5877 25.5239 23.5115 25.475 23.4481 25.4117L22.1981 24.1617" stroke="white" stroke-width="1.5" stroke-linecap="round" stroke-linejoin="round"/>
</g>
<defs>
<clipPath id="clip0">
<rect width="20.8333" height="20" fill="white" transform="translate(10 10)"/>
</clipPath>
</defs>
</svg>
