<svg width="30" height="30" viewBox="0 0 30 30" fill="none" xmlns="http://www.w3.org/2000/svg">
<circle cx="15" cy="15" r="15" fill="#F0F1F7"/>
<rect x="7.5" y="9.94824" width="15.4136" height="11.5516" rx="2.5" stroke="#9FA2B4"/>
<path d="M12.3098 9.93101V9.93101C12.3098 8.86454 13.1744 8 14.2408 8H16.1718C17.2383 8 18.1028 8.86454 18.1028 9.93101V9.93101" stroke="#9FA2B4"/>
<rect x="12.8098" y="14.7754" width="4.79303" height="2.86202" rx="1.43101" stroke="#9FA2B4"/>
<path d="M8.9312 10.3345L8.93117 14.2087C8.93116 15.3133 9.82659 16.2087 10.9312 16.2087H12.5518M21.4827 10.3345V14.2087C21.4827 15.3133 20.5873 16.2087 19.4827 16.2087H17.8621" stroke="#9FA2B4"/>
</svg>
