<svg width="21" height="21" viewBox="0 0 21 21" fill="none" xmlns="http://www.w3.org/2000/svg">
<g clip-path="url(#clip0)">
<path d="M1.30005 16.0322H7.30005" stroke="white" stroke-linecap="round" stroke-linejoin="round"/>
<path d="M16.8999 16.0322H19.2999" stroke="white" stroke-linecap="round" stroke-linejoin="round"/>
<path d="M1.30005 12.4326H7.30005" stroke="white" stroke-linecap="round" stroke-linejoin="round"/>
<path d="M1.30005 8.83301H9.70005" stroke="white" stroke-linecap="round" stroke-linejoin="round"/>
<path d="M10.9 5.23242H2.50005C2.18179 5.23242 1.87656 5.35885 1.65152 5.58389C1.42648 5.80893 1.30005 6.11417 1.30005 6.43242V18.4324C1.30005 18.7507 1.42648 19.0559 1.65152 19.281C1.87656 19.506 2.18179 19.6324 2.50005 19.6324H19.3" stroke="white" stroke-linecap="round" stroke-linejoin="round"/>
<path d="M14.6835 5.68452L15.2492 6.25021C15.5617 6.56263 16.0682 6.56263 16.3806 6.25021L19.0676 3.5632C19.38 3.25079 19.38 2.74425 19.0676 2.43184L18.5019 1.86615C18.1895 1.55373 17.683 1.55373 17.3706 1.86615L14.6835 4.55316C14.3711 4.86557 14.3711 5.37211 14.6835 5.68452Z" stroke="white" stroke-linecap="round" stroke-linejoin="round"/>
<path d="M14.5398 11.482L16.6614 9.36119C16.7729 9.24975 16.8614 9.11743 16.9217 8.97183C16.9821 8.82615 17.0132 8.67007 17.0132 8.51239C17.0132 8.35475 16.9821 8.19864 16.9217 8.053C16.8614 7.90736 16.7729 7.77504 16.6614 7.6636L14.9654 5.9668" stroke="white" stroke-linecap="round" stroke-linejoin="round"/>
<path d="M9.96432 15.2804C9.92104 15.3894 9.91056 15.5086 9.93424 15.6234C9.95792 15.7381 10.0147 15.8435 10.0976 15.9263C10.1805 16.0092 10.2858 16.066 10.4006 16.0897C10.5154 16.1134 10.6346 16.1029 10.7435 16.0596L16.3283 13.8396C16.502 13.7573 16.6534 13.6343 16.7697 13.4813C16.886 13.3282 16.9638 13.1494 16.9966 12.9599C17.0294 12.7705 17.0162 12.5759 16.9581 12.3927C16.8999 12.2094 16.7986 12.0428 16.6627 11.9068L14.1171 9.36122C13.9812 9.2253 13.8146 9.12402 13.6313 9.06586C13.448 9.00778 13.2534 8.99458 13.064 9.0273C12.8746 9.0601 12.6958 9.13794 12.5427 9.25426C12.3896 9.3705 12.2667 9.52194 12.1843 9.69562L9.96432 15.2804Z" stroke="white" stroke-linecap="round" stroke-linejoin="round"/>
<path d="M4.8999 12.4326V16.0326" stroke="white" stroke-linecap="round" stroke-linejoin="round"/>
<path d="M6.1001 8.83301V12.433" stroke="white" stroke-linecap="round" stroke-linejoin="round"/>
<path d="M8.5 5.23242V8.83241" stroke="white" stroke-linecap="round" stroke-linejoin="round"/>
<path d="M6.1001 16.0322V19.6322" stroke="white" stroke-linecap="round" stroke-linejoin="round"/>
<path d="M14.5 17.2324V19.6324" stroke="white" stroke-linecap="round" stroke-linejoin="round"/>
</g>
<defs>
<clipPath id="clip0">
<rect width="20" height="20" fill="white" transform="translate(0.5 0.5)"/>
</clipPath>
</defs>
</svg>
