<svg width="21" height="22" viewBox="0 0 21 22" fill="none" xmlns="http://www.w3.org/2000/svg">
<circle cx="10.5" cy="11" r="10.5" fill="white"/>
<path d="M9.5 6.5C9.5 5.94772 9.94772 5.5 10.5 5.5C11.0523 5.5 11.5 5.94772 11.5 6.5V12C11.5 12.5523 11.0523 13 10.5 13C9.94772 13 9.5 12.5523 9.5 12V6.5Z" fill="#5080FA"/>
<path d="M9.72844 5.58601C10.119 5.19549 10.7521 5.19549 11.1427 5.58601C11.5332 5.97654 11.5332 6.6097 11.1427 7.00023L9.72844 8.41444C9.33792 8.80496 8.70475 8.80496 8.31423 8.41444C7.9237 8.02392 7.9237 7.39075 8.31423 7.00023L9.72844 5.58601Z" fill="#5080FA"/>
<path d="M11.2071 5.58601C10.8166 5.19549 10.1834 5.19549 9.79289 5.58601C9.40237 5.97654 9.40237 6.6097 9.79289 7.00023L11.2071 8.41444C11.5976 8.80496 12.2308 8.80496 12.6213 8.41444C13.0118 8.02392 13.0118 7.39075 12.6213 7.00023L11.2071 5.58601Z" fill="#5080FA"/>
<path d="M6 16C5.44772 16 5 15.5523 5 15C5 14.4477 5.44772 14 6 14L15 14C15.5523 14 16 14.4477 16 15C16 15.5523 15.5523 16 15 16L6 16Z" fill="#5080FA"/>
</svg>
